{
  "php\\b": "PHP",
  "(javascript|js)\\b": "Javascript",
  "python\\b": "Python",
  "c#": "C-Sharp",
  "c\\+\\+": "C-plus-plus",
  "html5?\\b": "HTML",
  "css\\b": "CSS",
  "swift\\b": "Swift",
  "kotlin\\b": "Kotlin",
  "\\bGolang\\b": "Golang",
  "ruby\\b": "Ruby",
  "java\\b": "Java",
  "TypeScript\\b": "TypeScript",
  "Scala\\b": "Scala",
  "GraphQL\\b": "GraphQL"
}